name: Projects
description: ''
endpoints:
  -
    httpMethods:
      - GET
    uri: api/projects
    metadata:
      groupName: Projects
      groupDescription: ''
      subgroup: ''
      subgroupDescription: ''
      title: 'Get projects list'
      description: 'Return projects list.'
      authenticated: false
      custom: []
    headers:
      Content-Type: application/json
      Accept: application/json
      'Authorization:': 'Bearer {TOKEN}'
    urlParameters: []
    cleanUrlParameters: []
    queryParameters:
      size:
        name: size
        description: 'Number of rows. Default: 50'
        required: false
        example: 15
        type: integer
        custom: []
      page:
        name: page
        description: 'Number of page (pagination). Default: 1'
        required: false
        example: 14
        type: integer
        custom: []
    cleanQueryParameters:
      size: 15
      page: 14
    bodyParameters: []
    cleanBodyParameters: []
    fileParameters: []
    responses:
      -
        status: 200
        content: '{"total_rows": 100, "total_pages": "4", "current_page": 1, "has_more": true, "data": [{"id": 1, "name": "Test project", "location": "Warsaw", "description": "", "owner": "john@doe.com"}]}'
        headers: []
        description: ''
        custom: []
    responseFields: []
    auth: []
    controller: null
    method: null
    route: null
    custom: []
  -
    httpMethods:
      - PUT
    uri: api/project
    metadata:
      groupName: Projects
      groupDescription: ''
      subgroup: ''
      subgroupDescription: ''
      title: 'Create new project'
      description: 'Create new project.'
      authenticated: false
      custom: []
    headers:
      Content-Type: application/json
      Accept: application/json
      'Authorization:': 'Bearer {TOKEN}'
    urlParameters: []
    cleanUrlParameters: []
    queryParameters: []
    cleanQueryParameters: []
    bodyParameters:
      name:
        name: name
        description: 'Project name.'
        required: true
        example: illo
        type: string
        custom: []
      location:
        name: location
        description: 'Project location.'
        required: false
        example: non
        type: string
        custom: []
      description:
        name: description
        description: 'Project description.'
        required: false
        example: 'Doloremque est earum nostrum maiores reprehenderit voluptatem laborum aliquid.'
        type: string
        custom: []
      owner:
        name: owner
        description: 'Project owner.'
        required: false
        example: nostrum
        type: string
        custom: []
    cleanBodyParameters:
      name: illo
      location: non
      description: 'Doloremque est earum nostrum maiores reprehenderit voluptatem laborum aliquid.'
      owner: nostrum
    fileParameters: []
    responses: []
    responseFields:
      id:
        name: id
        description: 'The id of the newly created project'
        required: false
        example: null
        type: integer
        custom: []
    auth: []
    controller: null
    method: null
    route: null
    custom: []
  -
    httpMethods:
      - GET
    uri: 'api/project/{id}'
    metadata:
      groupName: Projects
      groupDescription: ''
      subgroup: ''
      subgroupDescription: ''
      title: 'Get project details'
      description: 'Return project details.'
      authenticated: false
      custom: []
    headers:
      Content-Type: application/json
      Accept: application/json
      'Authorization:': 'Bearer {TOKEN}'
    urlParameters:
      id:
        name: id
        description: 'Project identifier.'
        required: true
        example: 20
        type: integer
        custom: []
    cleanUrlParameters:
      id: 20
    queryParameters: []
    cleanQueryParameters: []
    bodyParameters: []
    cleanBodyParameters: []
    fileParameters: []
    responses:
      -
        status: 200
        content: '{"id": 1, "name": "Test project", "location": "Warsaw", "description": "", "owner": "john@doe.com"}'
        headers: []
        description: ''
        custom: []
      -
        status: 404
        content: '{"error":true,"message":"Project does not exist"}'
        headers: []
        description: ''
        custom: []
    responseFields: []
    auth: []
    controller: null
    method: null
    route: null
    custom: []
  -
    httpMethods:
      - PUT
    uri: 'api/project/{id}'
    metadata:
      groupName: Projects
      groupDescription: ''
      subgroup: ''
      subgroupDescription: ''
      title: 'Update project'
      description: 'Update project.'
      authenticated: false
      custom: []
    headers:
      Content-Type: application/json
      Accept: application/json
      'Authorization:': 'Bearer {TOKEN}'
    urlParameters:
      id:
        name: id
        description: 'Project identifier.'
        required: true
        example: 11
        type: integer
        custom: []
    cleanUrlParameters:
      id: 11
    queryParameters: []
    cleanQueryParameters: []
    bodyParameters:
      name:
        name: name
        description: 'Project name.'
        required: false
        example: reiciendis
        type: string
        custom: []
      location:
        name: location
        description: 'Project location.'
        required: false
        example: natus
        type: string
        custom: []
      description:
        name: description
        description: 'Project description.'
        required: false
        example: 'Consequuntur vitae distinctio consequatur ut commodi libero.'
        type: string
        custom: []
      owner:
        name: owner
        description: 'Project owner.'
        required: false
        example: odit
        type: string
        custom: []
    cleanBodyParameters:
      name: reiciendis
      location: natus
      description: 'Consequuntur vitae distinctio consequatur ut commodi libero.'
      owner: odit
    fileParameters: []
    responses: []
    responseFields:
      status:
        name: status
        description: 'Update status'
        required: false
        example: null
        type: boolean
        custom: []
    auth: []
    controller: null
    method: null
    route: null
    custom: []
  -
    httpMethods:
      - DELETE
    uri: 'api/project/{id}'
    metadata:
      groupName: Projects
      groupDescription: ''
      subgroup: ''
      subgroupDescription: ''
      title: 'Delete project'
      description: 'Delete project.'
      authenticated: false
      custom: []
    headers:
      Content-Type: application/json
      Accept: application/json
      'Authorization:': 'Bearer {TOKEN}'
    urlParameters:
      id:
        name: id
        description: 'Project identifier.'
        required: true
        example: 4
        type: integer
        custom: []
    cleanUrlParameters:
      id: 4
    queryParameters: []
    cleanQueryParameters: []
    bodyParameters: []
    cleanBodyParameters: []
    fileParameters: []
    responses:
      -
        status: 404
        content: '{"error":true,"message":"Project does not exist"}'
        headers: []
        description: ''
        custom: []
    responseFields:
      status:
        name: status
        description: 'Delete status'
        required: false
        example: null
        type: boolean
        custom: []
    auth: []
    controller: null
    method: null
    route: null
    custom: []
