name: 'User management'
description: ''
endpoints:
  -
    httpMethods:
      - GET
    uri: api/users
    metadata:
      groupName: 'User management'
      groupDescription: ''
      subgroup: ''
      subgroupDescription: ''
      title: 'Get users list'
      description: 'Return users account list.'
      authenticated: false
      custom: []
    headers:
      Content-Type: application/json
      Accept: application/json
      'Authorization:': 'Bearer {TOKEN}'
    urlParameters: []
    cleanUrlParameters: []
    queryParameters:
      size:
        name: size
        description: 'Number of rows. Default: 50'
        required: false
        example: 17
        type: integer
        custom: []
      page:
        name: page
        description: 'Number of page (pagination). Default: 1'
        required: false
        example: 12
        type: integer
        custom: []
    cleanQueryParameters:
      size: 17
      page: 12
    bodyParameters: []
    cleanBodyParameters: []
    fileParameters: []
    responses:
      -
        status: 200
        content: '{"total_rows": 100, "total_pages": "4", "current_page": 1, "has_more": true, "data": [{"id": 1, "firstname": "John", "lastname": "Doe", "phone": 123456789, "email": "john@doe.com", "activated": 1, "owner": 0, "superuser": 0, "user_permission_id": 1}]}'
        headers: []
        description: ''
        custom: []
    responseFields: []
    auth: []
    controller: null
    method: null
    route: null
    custom: []
  -
    httpMethods:
      - PUT
    uri: api/user
    metadata:
      groupName: 'User management'
      groupDescription: ''
      subgroup: ''
      subgroupDescription: ''
      title: 'Create user account'
      description: 'Create user account. After create account is ready to use.'
      authenticated: false
      custom: []
    headers:
      Content-Type: application/json
      Accept: application/json
      'Authorization:': 'Bearer {TOKEN}'
    urlParameters: []
    cleanUrlParameters: []
    queryParameters: []
    cleanQueryParameters: []
    bodyParameters:
      firstname:
        name: firstname
        description: 'User first name.'
        required: true
        example: debitis
        type: string
        custom: []
      lastname:
        name: lastname
        description: 'User last name.'
        required: true
        example: consequatur
        type: string
        custom: []
      email:
        name: email
        description: 'User e-mail address.'
        required: true
        example: kulas.rebeca@example.org
        type: string
        custom: []
      password:
        name: password
        description: 'User password (min 8 characters, lowercase and uppercase letters, number, special characters).'
        required: true
        example: 'qjnc6OyZ2:3'
        type: string
        custom: []
      phone:
        name: phone
        description: 'User phone number.'
        required: false
        example: voluptatibus
        type: string
        custom: []
      permission_id:
        name: permission_id
        description: 'Permission group identifier (if not set default permission will be used).'
        required: false
        example: 1
        type: integer
        custom: []
      superuser:
        name: superuser
        description: 'If set true user have full access regardless of permissions.'
        required: false
        example: false
        type: boolean
        custom: []
    cleanBodyParameters:
      firstname: debitis
      lastname: consequatur
      email: kulas.rebeca@example.org
      password: 'qjnc6OyZ2:3'
      phone: voluptatibus
      permission_id: 1
      superuser: false
    fileParameters: []
    responses:
      -
        status: 409
        content: '{"error":true,"message":"The given e-mail address is already registered"}'
        headers: []
        description: ''
        custom: []
    responseFields:
      id:
        name: id
        description: 'The id of the newly created user'
        required: false
        example: null
        type: integer
        custom: []
    auth: []
    controller: null
    method: null
    route: null
    custom: []
  -
    httpMethods:
      - POST
    uri: api/invite
    metadata:
      groupName: 'User management'
      groupDescription: ''
      subgroup: ''
      subgroupDescription: ''
      title: 'Invite user'
      description: 'Send invitation to the email address provided.'
      authenticated: false
      custom: []
    headers:
      Content-Type: application/json
      Accept: application/json
      'Authorization:': 'Bearer {TOKEN}'
    urlParameters: []
    cleanUrlParameters: []
    queryParameters: []
    cleanQueryParameters: []
    bodyParameters:
      email:
        name: email
        description: 'User e-mail address.'
        required: true
        example: virgie65@example.com
        type: string
        custom: []
      permission_id:
        name: permission_id
        description: 'Permission group identifier (if not set default permission will be used).'
        required: false
        example: 19
        type: integer
        custom: []
    cleanBodyParameters:
      email: virgie65@example.com
      permission_id: 19
    fileParameters: []
    responses:
      -
        status: 409
        content: '{"error":true,"message":"The given e-mail address is already registered"}'
        headers: []
        description: ''
        custom: []
    responseFields:
      status:
        name: status
        description: Status
        required: false
        example: null
        type: boolean
        custom: []
    auth: []
    controller: null
    method: null
    route: null
    custom: []
  -
    httpMethods:
      - GET
    uri: 'api/user/{id}'
    metadata:
      groupName: 'User management'
      groupDescription: ''
      subgroup: ''
      subgroupDescription: ''
      title: 'Get user account data'
      description: 'Return user account data.'
      authenticated: false
      custom: []
    headers:
      Content-Type: application/json
      Accept: application/json
      'Authorization:': 'Bearer {TOKEN}'
    urlParameters:
      id:
        name: id
        description: 'User identifier.'
        required: true
        example: 14
        type: integer
        custom: []
    cleanUrlParameters:
      id: 14
    queryParameters: []
    cleanQueryParameters: []
    bodyParameters: []
    cleanBodyParameters: []
    fileParameters: []
    responses:
      -
        status: 200
        content: '{"id": 1, "firstname": "John", "lastname": "Doe", "phone": 123456789, "email": "john@doe.com", "activated": 1, "owner": 0, "superuser": 0, "user_permission_id": 1}'
        headers: []
        description: ''
        custom: []
      -
        status: 404
        content: '{"error":true,"message":"User does not exist"}'
        headers: []
        description: ''
        custom: []
    responseFields: []
    auth: []
    controller: null
    method: null
    route: null
    custom: []
  -
    httpMethods:
      - PUT
    uri: 'api/user/{id}'
    metadata:
      groupName: 'User management'
      groupDescription: ''
      subgroup: ''
      subgroupDescription: ''
      title: 'Update user account data'
      description: 'Update user account data.'
      authenticated: false
      custom: []
    headers:
      Content-Type: application/json
      Accept: application/json
      'Authorization:': 'Bearer {TOKEN}'
    urlParameters:
      id:
        name: id
        description: 'User identifier.'
        required: true
        example: 17
        type: integer
        custom: []
    cleanUrlParameters:
      id: 17
    queryParameters: []
    cleanQueryParameters: []
    bodyParameters:
      firstname:
        name: firstname
        description: 'User first name.'
        required: false
        example: molestias
        type: string
        custom: []
      lastname:
        name: lastname
        description: 'User last name.'
        required: false
        example: quis
        type: string
        custom: []
      email:
        name: email
        description: 'User e-mail address.'
        required: false
        example: hagenes.jennyfer@example.com
        type: string
        custom: []
      password:
        name: password
        description: 'User password (min 8 characters, lowercase and uppercase letters, number, special characters).'
        required: false
        example: 'NK/yR`wfCKZ<G0r]7dZG'
        type: string
        custom: []
      phone:
        name: phone
        description: 'User phone number.'
        required: false
        example: enim
        type: string
        custom: []
      permission_id:
        name: permission_id
        description: 'Permission group identifier.'
        required: false
        example: 2
        type: integer
        custom: []
      superuser:
        name: superuser
        description: 'If set true user have full access regardless of permissions.'
        required: false
        example: true
        type: boolean
        custom: []
    cleanBodyParameters:
      firstname: molestias
      lastname: quis
      email: hagenes.jennyfer@example.com
      password: 'NK/yR`wfCKZ<G0r]7dZG'
      phone: enim
      permission_id: 2
      superuser: true
    fileParameters: []
    responses: []
    responseFields:
      status:
        name: status
        description: 'Update status'
        required: false
        example: null
        type: boolean
        custom: []
    auth: []
    controller: null
    method: null
    route: null
    custom: []
  -
    httpMethods:
      - DELETE
    uri: 'api/user/{id}'
    metadata:
      groupName: 'User management'
      groupDescription: ''
      subgroup: ''
      subgroupDescription: ''
      title: 'Delete user account'
      description: 'Delete user account.'
      authenticated: false
      custom: []
    headers:
      Content-Type: application/json
      Accept: application/json
      'Authorization:': 'Bearer {TOKEN}'
    urlParameters:
      id:
        name: id
        description: 'User identifier.'
        required: true
        example: 15
        type: integer
        custom: []
    cleanUrlParameters:
      id: 15
    queryParameters: []
    cleanQueryParameters: []
    bodyParameters: []
    cleanBodyParameters: []
    fileParameters: []
    responses:
      -
        status: 404
        content: '{"error":true,"message":"User does not exist"}'
        headers: []
        description: ''
        custom: []
    responseFields:
      status:
        name: status
        description: 'Delete status'
        required: false
        example: null
        type: boolean
        custom: []
    auth: []
    controller: null
    method: null
    route: null
    custom: []
  -
    httpMethods:
      - GET
    uri: 'api/invite/{token}'
    metadata:
      groupName: 'User management'
      groupDescription: ''
      subgroup: ''
      subgroupDescription: ''
      title: 'Validate invite token'
      description: 'Check validate invite token.'
      authenticated: false
      custom: []
    headers:
      Content-Type: application/json
      Accept: application/json
    urlParameters:
      token:
        name: token
        description: 'Invite token from invitation message.'
        required: true
        example: cumque
        type: string
        custom: []
    cleanUrlParameters:
      token: cumque
    queryParameters: []
    cleanQueryParameters: []
    bodyParameters: []
    cleanBodyParameters: []
    fileParameters: []
    responses:
      -
        status: 200
        content: "{'email': 'john@doe.com'}"
        headers: []
        description: ''
        custom: []
      -
        status: 404
        content: '{"error":true,"message":"The given token is invalid"}'
        headers: []
        description: ''
        custom: []
    responseFields: []
    auth: []
    controller: null
    method: null
    route: null
    custom: []
  -
    httpMethods:
      - PUT
    uri: 'api/invite/{token}'
    metadata:
      groupName: 'User management'
      groupDescription: ''
      subgroup: ''
      subgroupDescription: ''
      title: 'Confirm invitation'
      description: 'Confirm invitation and create new user account.'
      authenticated: false
      custom: []
    headers:
      Content-Type: application/json
      Accept: application/json
    urlParameters:
      token:
        name: token
        description: 'Invite token.'
        required: true
        example: sequi
        type: string
        custom: []
    cleanUrlParameters:
      token: sequi
    queryParameters: []
    cleanQueryParameters: []
    bodyParameters:
      firstname:
        name: firstname
        description: 'User first name.'
        required: true
        example: consequuntur
        type: string
        custom: []
      lastname:
        name: lastname
        description: 'User last name.'
        required: true
        example: pariatur
        type: string
        custom: []
      password:
        name: password
        description: 'User password (min 8 characters, lowercase and uppercase letters, number, special characters).'
        required: true
        example: '9N0=FJ=4(\tG[<t9c'
        type: string
        custom: []
      phone:
        name: phone
        description: 'User phone number.'
        required: false
        example: ex
        type: string
        custom: []
    cleanBodyParameters:
      firstname: consequuntur
      lastname: pariatur
      password: '9N0=FJ=4(\tG[<t9c'
      phone: ex
    fileParameters: []
    responses:
      -
        status: 404
        content: '{"error":true,"message":"The given token is invalid"}'
        headers: []
        description: ''
        custom: []
    responseFields:
      id:
        name: id
        description: 'The id of the newly created user'
        required: false
        example: null
        type: integer
        custom: []
    auth: []
    controller: null
    method: null
    route: null
    custom: []
