name: Tasks
description: ''
endpoints:
  -
    httpMethods:
      - GET
    uri: 'api/tasks/{id}'
    metadata:
      groupName: Tasks
      groupDescription: ''
      subgroup: ''
      subgroupDescription: ''
      title: 'Get tasks list'
      description: 'Return tasks list assigned to project.'
      authenticated: false
      custom: []
    headers:
      Content-Type: application/json
      Accept: application/json
      'Authorization:': 'Bearer {TOKEN}'
    urlParameters:
      id:
        name: id
        description: 'Project identifier.'
        required: true
        example: 9
        type: integer
        custom: []
    cleanUrlParameters:
      id: 9
    queryParameters:
      size:
        name: size
        description: 'Number of rows. Default: 50'
        required: false
        example: 9
        type: integer
        custom: []
      page:
        name: page
        description: 'Number of page (pagination). Default: 1'
        required: false
        example: 4
        type: integer
        custom: []
    cleanQueryParameters:
      size: 9
      page: 4
    bodyParameters: []
    cleanBodyParameters: []
    fileParameters: []
    responses:
      -
        status: 200
        content: '{"total_rows": 100, "total_pages": "4", "current_page": 1, "has_more": true, "data": [{"id": 1, "name": "Example task", "description": "Example description", "created_at" => "2020-01-01 10:00:00"}]}'
        headers: []
        description: ''
        custom: []
    responseFields: []
    auth: []
    controller: null
    method: null
    route: null
    custom: []
  -
    httpMethods:
      - PUT
    uri: api/task
    metadata:
      groupName: Tasks
      groupDescription: ''
      subgroup: ''
      subgroupDescription: ''
      title: 'Create new task'
      description: 'Create new task.'
      authenticated: false
      custom: []
    headers:
      Content-Type: application/json
      Accept: application/json
      'Authorization:': 'Bearer {TOKEN}'
    urlParameters: []
    cleanUrlParameters: []
    queryParameters: []
    cleanQueryParameters: []
    bodyParameters:
      project_id:
        name: project_id
        description: 'Project identifier.'
        required: true
        example: 15
        type: integer
        custom: []
      name:
        name: name
        description: 'Task name.'
        required: true
        example: autem
        type: string
        custom: []
      description:
        name: description
        description: 'Task description.'
        required: false
        example: 'Quas aut quo aut.'
        type: string
        custom: []
    cleanBodyParameters:
      project_id: 15
      name: autem
      description: 'Quas aut quo aut.'
    fileParameters: []
    responses: []
    responseFields:
      id:
        name: id
        description: 'The id of the newly created task'
        required: false
        example: null
        type: integer
        custom: []
    auth: []
    controller: null
    method: null
    route: null
    custom: []
  -
    httpMethods:
      - GET
    uri: 'api/task/{id}'
    metadata:
      groupName: Tasks
      groupDescription: ''
      subgroup: ''
      subgroupDescription: ''
      title: 'Get task details'
      description: 'Return task details.'
      authenticated: false
      custom: []
    headers:
      Content-Type: application/json
      Accept: application/json
      'Authorization:': 'Bearer {TOKEN}'
    urlParameters:
      id:
        name: id
        description: 'Task identifier.'
        required: true
        example: 15
        type: integer
        custom: []
    cleanUrlParameters:
      id: 15
    queryParameters: []
    cleanQueryParameters: []
    bodyParameters: []
    cleanBodyParameters: []
    fileParameters: []
    responses:
      -
        status: 200
        content: '{"id": 1, "name": "Example task", "description": "Example description", "created_at" => "2020-01-01 10:00:00"}'
        headers: []
        description: ''
        custom: []
      -
        status: 404
        content: '{"error":true,"message":"Task does not exist"}'
        headers: []
        description: ''
        custom: []
    responseFields: []
    auth: []
    controller: null
    method: null
    route: null
    custom: []
  -
    httpMethods:
      - PUT
    uri: 'api/task/{id}'
    metadata:
      groupName: Tasks
      groupDescription: ''
      subgroup: ''
      subgroupDescription: ''
      title: 'Update task'
      description: 'Update task.'
      authenticated: false
      custom: []
    headers:
      Content-Type: application/json
      Accept: application/json
      'Authorization:': 'Bearer {TOKEN}'
    urlParameters:
      id:
        name: id
        description: 'Task identifier.'
        required: true
        example: 14
        type: integer
        custom: []
    cleanUrlParameters:
      id: 14
    queryParameters: []
    cleanQueryParameters: []
    bodyParameters:
      name:
        name: name
        description: 'Task name.'
        required: false
        example: earum
        type: string
        custom: []
      description:
        name: description
        description: 'Task description.'
        required: false
        example: 'Ullam soluta quidem voluptas fugit vitae ipsum.'
        type: string
        custom: []
    cleanBodyParameters:
      name: earum
      description: 'Ullam soluta quidem voluptas fugit vitae ipsum.'
    fileParameters: []
    responses: []
    responseFields:
      status:
        name: status
        description: 'Update status'
        required: false
        example: null
        type: boolean
        custom: []
    auth: []
    controller: null
    method: null
    route: null
    custom: []
  -
    httpMethods:
      - DELETE
    uri: 'api/task/{id}'
    metadata:
      groupName: Tasks
      groupDescription: ''
      subgroup: ''
      subgroupDescription: ''
      title: 'Delete task'
      description: 'Delete task.'
      authenticated: false
      custom: []
    headers:
      Content-Type: application/json
      Accept: application/json
      'Authorization:': 'Bearer {TOKEN}'
    urlParameters:
      id:
        name: id
        description: 'Task identifier.'
        required: true
        example: 16
        type: integer
        custom: []
    cleanUrlParameters:
      id: 16
    queryParameters: []
    cleanQueryParameters: []
    bodyParameters: []
    cleanBodyParameters: []
    fileParameters: []
    responses:
      -
        status: 404
        content: '{"error":true,"message":"Task does not exist"}'
        headers: []
        description: ''
        custom: []
    responseFields:
      status:
        name: status
        description: 'Delete status'
        required: false
        example: null
        type: boolean
        custom: []
    auth: []
    controller: null
    method: null
    route: null
    custom: []
