name: Notifications
description: ''
endpoints:
  -
    httpMethods:
      - GET
    uri: api/notifications
    metadata:
      groupName: Notifications
      groupDescription: ''
      subgroup: ''
      subgroupDescription: ''
      title: 'Get notifications list'
      description: 'Return notifications list.'
      authenticated: false
      custom: []
    headers:
      Content-Type: application/json
      Accept: application/json
      'Authorization:': 'Bearer {TOKEN}'
    urlParameters: []
    cleanUrlParameters: []
    queryParameters:
      size:
        name: size
        description: 'Number of rows. Default: 50'
        required: false
        example: 13
        type: integer
        custom: []
      page:
        name: page
        description: 'Number of page (pagination). Default: 1'
        required: false
        example: 9
        type: integer
        custom: []
    cleanQueryParameters:
      size: 13
      page: 9
    bodyParameters: []
    cleanBodyParameters: []
    fileParameters: []
    responses:
      -
        status: 200
        content: '{"total_rows": 100, "total_pages": "4", "current_page": 1, "has_more": true, "data": ["id": 1, "object_id": 1, "object_name": "Task #1", "type": "task:assign", "read": 0, "read_time": null, "created_at": "2023-01-01 00:00:00"]}'
        headers: []
        description: ''
        custom: []
    responseFields: []
    auth: []
    controller: null
    method: null
    route: null
    custom: []
  -
    httpMethods:
      - PUT
    uri: 'api/notification/read/{id}'
    metadata:
      groupName: Notifications
      groupDescription: ''
      subgroup: ''
      subgroupDescription: ''
      title: 'Set notification as read'
      description: 'Set notification as read.'
      authenticated: false
      custom: []
    headers:
      Content-Type: application/json
      Accept: application/json
      'Authorization:': 'Bearer {TOKEN}'
    urlParameters: []
    cleanUrlParameters: []
    queryParameters:
      id:
        name: id
        description: 'notification identifier'
        required: false
        example: 3
        type: integer
        custom: []
    cleanQueryParameters:
      id: 3
    bodyParameters: []
    cleanBodyParameters: []
    fileParameters: []
    responses: []
    responseFields: []
    auth: []
    controller: null
    method: null
    route: null
    custom: []
