## Autogenerated by Scribe. DO NOT MODIFY.

name: 'User management'
description: ''
endpoints:
  -
    httpMethods:
      - GET
    uri: api/users
    metadata:
      groupName: 'User management'
      groupDescription: ''
      subgroup: ''
      subgroupDescription: ''
      title: 'Get users list'
      description: 'Return users account list.'
      authenticated: false
      custom: []
    headers:
      Content-Type: application/json
      Accept: application/json
      'Authorization:': 'Bearer {TOKEN}'
    urlParameters: []
    cleanUrlParameters: []
    queryParameters:
      size:
        name: size
        description: 'Number of rows. Default: 50'
        required: false
        example: 15
        type: integer
        custom: []
      page:
        name: page
        description: 'Number of page (pagination). Default: 1'
        required: false
        example: 15
        type: integer
        custom: []
    cleanQueryParameters:
      size: 15
      page: 15
    bodyParameters: []
    cleanBodyParameters: []
    fileParameters: []
    responses:
      -
        status: 200
        content: '{"total_rows": 100, "total_pages": "4", "current_page": 1, "has_more": true, "data": [{"id": 1, "firstname": "John", "lastname": "Doe", "phone": 123456789, "email": "john@doe.com", "activated": 1, "owner": 0, "superuser": 0, "can_delete": 1, "user_permission_id": 1, "user_permission_name": "Permission name"}]}'
        headers: []
        description: ''
        custom: []
    responseFields: []
    auth: []
    controller: null
    method: null
    route: null
    custom: []
  -
    httpMethods:
      - PUT
    uri: api/user
    metadata:
      groupName: 'User management'
      groupDescription: ''
      subgroup: ''
      subgroupDescription: ''
      title: 'Create user account'
      description: 'Create user account. After create account is ready to use.'
      authenticated: false
      custom: []
    headers:
      Content-Type: application/json
      Accept: application/json
      'Authorization:': 'Bearer {TOKEN}'
    urlParameters: []
    cleanUrlParameters: []
    queryParameters: []
    cleanQueryParameters: []
    bodyParameters:
      firstname:
        name: firstname
        description: 'User first name.'
        required: true
        example: assumenda
        type: string
        custom: []
      lastname:
        name: lastname
        description: 'User last name.'
        required: true
        example: dolor
        type: string
        custom: []
      email:
        name: email
        description: 'User e-mail address.'
        required: true
        example: gislason.aditya@example.org
        type: string
        custom: []
      password:
        name: password
        description: 'User password (min 8 characters, lowercase and uppercase letters, number, special characters).'
        required: true
        example: '.e23cl"TP'
        type: string
        custom: []
      phone:
        name: phone
        description: 'User phone number.'
        required: false
        example: dolores
        type: string
        custom: []
      user_permission_id:
        name: user_permission_id
        description: 'Permission group identifier (if not set default permission will be used).'
        required: false
        example: 20
        type: integer
        custom: []
      superuser:
        name: superuser
        description: 'If set true user have full access regardless of permissions.'
        required: false
        example: true
        type: boolean
        custom: []
    cleanBodyParameters:
      firstname: assumenda
      lastname: dolor
      email: gislason.aditya@example.org
      password: '.e23cl"TP'
      phone: dolores
      user_permission_id: 20
      superuser: true
    fileParameters: []
    responses:
      -
        status: 409
        content: '{"error":true,"message":"The given e-mail address is already registered"}'
        headers: []
        description: ''
        custom: []
    responseFields:
      id:
        name: id
        description: 'The id of the newly created user'
        required: false
        example: null
        type: integer
        custom: []
    auth: []
    controller: null
    method: null
    route: null
    custom: []
  -
    httpMethods:
      - POST
    uri: api/invite
    metadata:
      groupName: 'User management'
      groupDescription: ''
      subgroup: ''
      subgroupDescription: ''
      title: 'Invite user'
      description: 'Send invitation to the email address provided.'
      authenticated: false
      custom: []
    headers:
      Content-Type: application/json
      Accept: application/json
      'Authorization:': 'Bearer {TOKEN}'
    urlParameters: []
    cleanUrlParameters: []
    queryParameters: []
    cleanQueryParameters: []
    bodyParameters:
      email:
        name: email
        description: 'User e-mail address.'
        required: true
        example: koelpin.anabelle@example.net
        type: string
        custom: []
      user_permission_id:
        name: user_permission_id
        description: 'Permission group identifier (if not set default permission will be used).'
        required: false
        example: 17
        type: integer
        custom: []
    cleanBodyParameters:
      email: koelpin.anabelle@example.net
      user_permission_id: 17
    fileParameters: []
    responses:
      -
        status: 409
        content: '{"error":true,"message":"The given e-mail address is already registered"}'
        headers: []
        description: ''
        custom: []
    responseFields:
      status:
        name: status
        description: Status
        required: false
        example: null
        type: boolean
        custom: []
    auth: []
    controller: null
    method: null
    route: null
    custom: []
  -
    httpMethods:
      - GET
    uri: 'api/user/{id}'
    metadata:
      groupName: 'User management'
      groupDescription: ''
      subgroup: ''
      subgroupDescription: ''
      title: 'Get user account data'
      description: 'Return user account data.'
      authenticated: false
      custom: []
    headers:
      Content-Type: application/json
      Accept: application/json
      'Authorization:': 'Bearer {TOKEN}'
    urlParameters:
      id:
        name: id
        description: 'User identifier.'
        required: true
        example: 8
        type: integer
        custom: []
    cleanUrlParameters:
      id: 8
    queryParameters: []
    cleanQueryParameters: []
    bodyParameters: []
    cleanBodyParameters: []
    fileParameters: []
    responses:
      -
        status: 200
        content: '{"id": 1, "firstname": "John", "lastname": "Doe", "phone": 123456789, "email": "john@doe.com", "activated": 1, "owner": 0, "superuser": 0, "can_delete": 1, "user_permission_id": 1, "user_permission_name": "Permission name"}'
        headers: []
        description: ''
        custom: []
      -
        status: 404
        content: '{"error":true,"message":"User does not exist"}'
        headers: []
        description: ''
        custom: []
    responseFields: []
    auth: []
    controller: null
    method: null
    route: null
    custom: []
  -
    httpMethods:
      - PUT
    uri: 'api/user/{id}'
    metadata:
      groupName: 'User management'
      groupDescription: ''
      subgroup: ''
      subgroupDescription: ''
      title: 'Update user account data'
      description: 'Update user account data.'
      authenticated: false
      custom: []
    headers:
      Content-Type: application/json
      Accept: application/json
      'Authorization:': 'Bearer {TOKEN}'
    urlParameters:
      id:
        name: id
        description: 'User identifier.'
        required: true
        example: 13
        type: integer
        custom: []
    cleanUrlParameters:
      id: 13
    queryParameters: []
    cleanQueryParameters: []
    bodyParameters:
      firstname:
        name: firstname
        description: 'User first name.'
        required: false
        example: quibusdam
        type: string
        custom: []
      lastname:
        name: lastname
        description: 'User last name.'
        required: false
        example: maiores
        type: string
        custom: []
      email:
        name: email
        description: 'User e-mail address.'
        required: false
        example: ilegros@example.com
        type: string
        custom: []
      password:
        name: password
        description: 'User password (min 8 characters, lowercase and uppercase letters, number, special characters).'
        required: false
        example: '*''e"XK5Z)'
        type: string
        custom: []
      phone:
        name: phone
        description: 'User phone number.'
        required: false
        example: aliquid
        type: string
        custom: []
      user_permission_id:
        name: user_permission_id
        description: 'Permission group identifier.'
        required: false
        example: 9
        type: integer
        custom: []
      superuser:
        name: superuser
        description: 'If set true user have full access regardless of permissions.'
        required: false
        example: false
        type: boolean
        custom: []
    cleanBodyParameters:
      firstname: quibusdam
      lastname: maiores
      email: ilegros@example.com
      password: '*''e"XK5Z)'
      phone: aliquid
      user_permission_id: 9
      superuser: false
    fileParameters: []
    responses: []
    responseFields:
      status:
        name: status
        description: 'Update status'
        required: false
        example: null
        type: boolean
        custom: []
    auth: []
    controller: null
    method: null
    route: null
    custom: []
  -
    httpMethods:
      - DELETE
    uri: 'api/user/{id}'
    metadata:
      groupName: 'User management'
      groupDescription: ''
      subgroup: ''
      subgroupDescription: ''
      title: 'Delete user account'
      description: 'Delete user account.'
      authenticated: false
      custom: []
    headers:
      Content-Type: application/json
      Accept: application/json
      'Authorization:': 'Bearer {TOKEN}'
    urlParameters:
      id:
        name: id
        description: 'User identifier.'
        required: true
        example: 16
        type: integer
        custom: []
    cleanUrlParameters:
      id: 16
    queryParameters: []
    cleanQueryParameters: []
    bodyParameters: []
    cleanBodyParameters: []
    fileParameters: []
    responses:
      -
        status: 404
        content: '{"error":true,"message":"User does not exist"}'
        headers: []
        description: ''
        custom: []
    responseFields:
      status:
        name: status
        description: 'Delete status'
        required: false
        example: null
        type: boolean
        custom: []
    auth: []
    controller: null
    method: null
    route: null
    custom: []
  -
    httpMethods:
      - GET
    uri: api/user/permission
    metadata:
      groupName: 'User management'
      groupDescription: ''
      subgroup: ''
      subgroupDescription: ''
      title: 'Get logged user permissions'
      description: 'Get logged user permissions'
      authenticated: false
      custom: []
    headers:
      Content-Type: application/json
      Accept: application/json
      'Authorization:': 'Bearer {TOKEN}'
    urlParameters: []
    cleanUrlParameters: []
    queryParameters: []
    cleanQueryParameters: []
    bodyParameters: []
    cleanBodyParameters: []
    fileParameters: []
    responses:
      -
        status: 200
        content: '{"permission":{"project":["list","create","update","delete"],"task":["list","create","update","delete"],"user":["list","create","update","delete"],"permission":["list","create","update","delete"]}}'
        headers: []
        description: ''
        custom: []
    responseFields: []
    auth: []
    controller: null
    method: null
    route: null
    custom: []
  -
    httpMethods:
      - GET
    uri: api/profile
    metadata:
      groupName: 'User management'
      groupDescription: ''
      subgroup: ''
      subgroupDescription: ''
      title: 'User profile'
      description: 'User profile.'
      authenticated: false
      custom: []
    headers:
      Content-Type: application/json
      Accept: application/json
      'Authorization:': 'Bearer {TOKEN}'
    urlParameters: []
    cleanUrlParameters: []
    queryParameters: []
    cleanQueryParameters: []
    bodyParameters: []
    cleanBodyParameters: []
    fileParameters: []
    responses:
      -
        status: 200
        content: '{"id": 1, "firstname": "John", "lastname": "Doe", "phone": 123456789, "email": "john@doe.com", "activated": 1, "owner": 0, "superuser": 0, "user_permission_id": 1, "user_permission_name": "Permission name"}'
        headers: []
        description: ''
        custom: []
    responseFields: []
    auth: []
    controller: null
    method: null
    route: null
    custom: []
  -
    httpMethods:
      - PUT
    uri: api/profile
    metadata:
      groupName: 'User management'
      groupDescription: ''
      subgroup: ''
      subgroupDescription: ''
      title: 'Update user profile'
      description: 'User profile.'
      authenticated: false
      custom: []
    headers:
      Content-Type: application/json
      Accept: application/json
      'Authorization:': 'Bearer {TOKEN}'
    urlParameters: []
    cleanUrlParameters: []
    queryParameters: []
    cleanQueryParameters: []
    bodyParameters:
      firstname:
        name: firstname
        description: 'User first name.'
        required: false
        example: magnam
        type: string
        custom: []
      lastname:
        name: lastname
        description: 'User last name.'
        required: false
        example: earum
        type: string
        custom: []
      email:
        name: email
        description: 'User e-mail address.'
        required: false
        example: nhills@example.net
        type: string
        custom: []
      password:
        name: password
        description: 'User password (min 8 characters, lowercase and uppercase letters, number, special characters).'
        required: false
        example: '=rx>*_#t##'
        type: string
        custom: []
      phone:
        name: phone
        description: 'User phone number.'
        required: false
        example: voluptas
        type: string
        custom: []
    cleanBodyParameters:
      firstname: magnam
      lastname: earum
      email: nhills@example.net
      password: '=rx>*_#t##'
      phone: voluptas
    fileParameters: []
    responses: []
    responseFields:
      status:
        name: status
        description: 'Update status'
        required: false
        example: null
        type: boolean
        custom: []
    auth: []
    controller: null
    method: null
    route: null
    custom: []
  -
    httpMethods:
      - GET
    uri: api/settings
    metadata:
      groupName: 'User management'
      groupDescription: ''
      subgroup: ''
      subgroupDescription: ''
      title: 'User settings'
      description: 'User settings.'
      authenticated: false
      custom: []
    headers:
      Content-Type: application/json
      Accept: application/json
      'Authorization:': 'Bearer {TOKEN}'
    urlParameters: []
    cleanUrlParameters: []
    queryParameters: []
    cleanQueryParameters: []
    bodyParameters: []
    cleanBodyParameters: []
    fileParameters: []
    responses:
      -
        status: 200
        content: '{"locale": "pl"}'
        headers: []
        description: ''
        custom: []
    responseFields: []
    auth: []
    controller: null
    method: null
    route: null
    custom: []
  -
    httpMethods:
      - PUT
    uri: api/settings
    metadata:
      groupName: 'User management'
      groupDescription: ''
      subgroup: ''
      subgroupDescription: ''
      title: 'Update user settings'
      description: 'User settings.'
      authenticated: false
      custom: []
    headers:
      Content-Type: application/json
      Accept: application/json
      'Authorization:': 'Bearer {TOKEN}'
    urlParameters: []
    cleanUrlParameters: []
    queryParameters: []
    cleanQueryParameters: []
    bodyParameters:
      locale:
        name: locale
        description: 'Locale ex. pl.'
        required: false
        example: ha_SD
        type: string
        custom: []
      notifications:
        name: notifications
        description: 'User e-mail notifications (separated by a comma)'
        required: false
        example: ut
        type: string
        custom: []
    cleanBodyParameters:
      locale: ha_SD
      notifications: ut
    fileParameters: []
    responses: []
    responseFields:
      status:
        name: status
        description: 'Update status'
        required: false
        example: null
        type: boolean
        custom: []
    auth: []
    controller: null
    method: null
    route: null
    custom: []
  -
    httpMethods:
      - GET
    uri: api/get-firm-id
    metadata:
      groupName: 'User management'
      groupDescription: ''
      subgroup: ''
      subgroupDescription: ''
      title: 'Get login user firm identifier'
      description: 'Get login user firm identifier.'
      authenticated: false
      custom: []
    headers:
      Content-Type: application/json
      Accept: application/json
      'Authorization:': 'Bearer {TOKEN}'
    urlParameters: []
    cleanUrlParameters: []
    queryParameters: []
    cleanQueryParameters: []
    bodyParameters: []
    cleanBodyParameters: []
    fileParameters: []
    responses: []
    responseFields:
      status:
        name: status
        description: 'Firm identifier'
        required: false
        example: null
        type: integer
        custom: []
    auth: []
    controller: null
    method: null
    route: null
    custom: []
  -
    httpMethods:
      - GET
    uri: api/get-id
    metadata:
      groupName: 'User management'
      groupDescription: ''
      subgroup: ''
      subgroupDescription: ''
      title: 'Get login user identifier'
      description: 'Get login user identifier.'
      authenticated: false
      custom: []
    headers:
      Content-Type: application/json
      Accept: application/json
      'Authorization:': 'Bearer {TOKEN}'
    urlParameters: []
    cleanUrlParameters: []
    queryParameters: []
    cleanQueryParameters: []
    bodyParameters: []
    cleanBodyParameters: []
    fileParameters: []
    responses: []
    responseFields:
      status:
        name: status
        description: 'User identifier'
        required: false
        example: null
        type: integer
        custom: []
    auth: []
    controller: null
    method: null
    route: null
    custom: []
  -
    httpMethods:
      - GET
    uri: api/user/getActiveTimer
    metadata:
      groupName: 'User management'
      groupDescription: ''
      subgroup: ''
      subgroupDescription: ''
      title: 'Get active timer'
      description: 'Get user active timer list.'
      authenticated: false
      custom: []
    headers:
      Content-Type: application/json
      Accept: application/json
      'Authorization:': 'Bearer {TOKEN}'
    urlParameters: []
    cleanUrlParameters: []
    queryParameters: []
    cleanQueryParameters: []
    bodyParameters: []
    cleanBodyParameters: []
    fileParameters: []
    responses:
      -
        status: 200
        content: '{"total": 100, "data": [{"id": 1, "task_id": 12, "status": "active", "total": 1, "task": "Task name"}]}'
        headers: []
        description: ''
        custom: []
    responseFields:
      status:
        name: status
        description: 'Update status'
        required: false
        example: null
        type: boolean
        custom: []
    auth: []
    controller: null
    method: null
    route: null
    custom: []
  -
    httpMethods:
      - GET
    uri: 'api/invite/{token}'
    metadata:
      groupName: 'User management'
      groupDescription: ''
      subgroup: ''
      subgroupDescription: ''
      title: 'Validate invite token'
      description: 'Check validate invite token.'
      authenticated: false
      custom: []
    headers:
      Content-Type: application/json
      Accept: application/json
    urlParameters:
      token:
        name: token
        description: 'Invite token from invitation message.'
        required: true
        example: voluptatem
        type: string
        custom: []
    cleanUrlParameters:
      token: voluptatem
    queryParameters: []
    cleanQueryParameters: []
    bodyParameters: []
    cleanBodyParameters: []
    fileParameters: []
    responses:
      -
        status: 200
        content: "{'email': 'john@doe.com'}"
        headers: []
        description: ''
        custom: []
      -
        status: 404
        content: '{"error":true,"message":"The given token is invalid"}'
        headers: []
        description: ''
        custom: []
    responseFields: []
    auth: []
    controller: null
    method: null
    route: null
    custom: []
  -
    httpMethods:
      - PUT
    uri: 'api/invite/{token}'
    metadata:
      groupName: 'User management'
      groupDescription: ''
      subgroup: ''
      subgroupDescription: ''
      title: 'Confirm invitation'
      description: 'Confirm invitation and create new user account.'
      authenticated: false
      custom: []
    headers:
      Content-Type: application/json
      Accept: application/json
    urlParameters:
      token:
        name: token
        description: 'Invite token.'
        required: true
        example: rerum
        type: string
        custom: []
    cleanUrlParameters:
      token: rerum
    queryParameters: []
    cleanQueryParameters: []
    bodyParameters:
      firstname:
        name: firstname
        description: 'User first name.'
        required: true
        example: sit
        type: string
        custom: []
      lastname:
        name: lastname
        description: 'User last name.'
        required: true
        example: autem
        type: string
        custom: []
      password:
        name: password
        description: 'User password (min 8 characters, lowercase and uppercase letters, number, special characters).'
        required: true
        example: 'dWeV+xT64K[RB2:Sf['
        type: string
        custom: []
      phone:
        name: phone
        description: 'User phone number.'
        required: false
        example: dolorem
        type: string
        custom: []
    cleanBodyParameters:
      firstname: sit
      lastname: autem
      password: 'dWeV+xT64K[RB2:Sf['
      phone: dolorem
    fileParameters: []
    responses:
      -
        status: 404
        content: '{"error":true,"message":"The given token is invalid"}'
        headers: []
        description: ''
        custom: []
    responseFields:
      id:
        name: id
        description: 'The id of the newly created user'
        required: false
        example: null
        type: integer
        custom: []
    auth: []
    controller: null
    method: null
    route: null
    custom: []
