## Autogenerated by Scribe. DO NOT MODIFY.

name: 'User management'
description: ''
endpoints:
  -
    httpMethods:
      - GET
    uri: api/users
    metadata:
      groupName: 'User management'
      groupDescription: ''
      subgroup: ''
      subgroupDescription: ''
      title: 'Get users list'
      description: 'Return users account list.'
      authenticated: false
      custom: []
    headers:
      Content-Type: application/json
      Accept: application/json
      'Authorization:': 'Bearer {TOKEN}'
    urlParameters: []
    cleanUrlParameters: []
    queryParameters:
      size:
        name: size
        description: 'Number of rows. Default: 50'
        required: false
        example: 7
        type: integer
        custom: []
      page:
        name: page
        description: 'Number of page (pagination). Default: 1'
        required: false
        example: 5
        type: integer
        custom: []
    cleanQueryParameters:
      size: 7
      page: 5
    bodyParameters: []
    cleanBodyParameters: []
    fileParameters: []
    responses:
      -
        status: 200
        content: '{"total_rows": 100, "total_pages": "4", "current_page": 1, "has_more": true, "data": [{"id": 1, "firstname": "John", "lastname": "Doe", "phone": 123456789, "email": "john@doe.com", "activated": 1, "owner": 0, "superuser": 0, "can_delete": 1, "user_permission_id": 1, "user_permission_name": "Permission name"}]}'
        headers: []
        description: ''
        custom: []
    responseFields: []
    auth: []
    controller: null
    method: null
    route: null
    custom: []
  -
    httpMethods:
      - PUT
    uri: api/user
    metadata:
      groupName: 'User management'
      groupDescription: ''
      subgroup: ''
      subgroupDescription: ''
      title: 'Create user account'
      description: 'Create user account. After create account is ready to use.'
      authenticated: false
      custom: []
    headers:
      Content-Type: application/json
      Accept: application/json
      'Authorization:': 'Bearer {TOKEN}'
    urlParameters: []
    cleanUrlParameters: []
    queryParameters: []
    cleanQueryParameters: []
    bodyParameters:
      firstname:
        name: firstname
        description: 'User first name.'
        required: true
        example: minus
        type: string
        custom: []
      lastname:
        name: lastname
        description: 'User last name.'
        required: true
        example: tempora
        type: string
        custom: []
      email:
        name: email
        description: 'User e-mail address.'
        required: true
        example: brianne.baumbach@example.net
        type: string
        custom: []
      password:
        name: password
        description: 'User password (min 8 characters, lowercase and uppercase letters, number, special characters).'
        required: true
        example: '\"CSM]:[)Be1#n.n"N'
        type: string
        custom: []
      phone:
        name: phone
        description: 'User phone number.'
        required: false
        example: omnis
        type: string
        custom: []
      user_permission_id:
        name: user_permission_id
        description: 'Permission group identifier (if not set default permission will be used).'
        required: false
        example: 2
        type: integer
        custom: []
      superuser:
        name: superuser
        description: 'If set true user have full access regardless of permissions.'
        required: false
        example: true
        type: boolean
        custom: []
    cleanBodyParameters:
      firstname: minus
      lastname: tempora
      email: brianne.baumbach@example.net
      password: '\"CSM]:[)Be1#n.n"N'
      phone: omnis
      user_permission_id: 2
      superuser: true
    fileParameters: []
    responses:
      -
        status: 409
        content: '{"error":true,"message":"The given e-mail address is already registered"}'
        headers: []
        description: ''
        custom: []
    responseFields:
      id:
        name: id
        description: 'The id of the newly created user'
        required: false
        example: null
        type: integer
        custom: []
    auth: []
    controller: null
    method: null
    route: null
    custom: []
  -
    httpMethods:
      - POST
    uri: api/invite
    metadata:
      groupName: 'User management'
      groupDescription: ''
      subgroup: ''
      subgroupDescription: ''
      title: 'Invite user'
      description: 'Send invitation to the email address provided.'
      authenticated: false
      custom: []
    headers:
      Content-Type: application/json
      Accept: application/json
      'Authorization:': 'Bearer {TOKEN}'
    urlParameters: []
    cleanUrlParameters: []
    queryParameters: []
    cleanQueryParameters: []
    bodyParameters:
      email:
        name: email
        description: 'User e-mail address.'
        required: true
        example: lubowitz.presley@example.org
        type: string
        custom: []
      user_permission_id:
        name: user_permission_id
        description: 'Permission group identifier (if not set default permission will be used).'
        required: false
        example: 10
        type: integer
        custom: []
    cleanBodyParameters:
      email: lubowitz.presley@example.org
      user_permission_id: 10
    fileParameters: []
    responses:
      -
        status: 409
        content: '{"error":true,"message":"The given e-mail address is already registered"}'
        headers: []
        description: ''
        custom: []
    responseFields:
      status:
        name: status
        description: Status
        required: false
        example: null
        type: boolean
        custom: []
    auth: []
    controller: null
    method: null
    route: null
    custom: []
  -
    httpMethods:
      - GET
    uri: 'api/user/{id}'
    metadata:
      groupName: 'User management'
      groupDescription: ''
      subgroup: ''
      subgroupDescription: ''
      title: 'Get user account data'
      description: 'Return user account data.'
      authenticated: false
      custom: []
    headers:
      Content-Type: application/json
      Accept: application/json
      'Authorization:': 'Bearer {TOKEN}'
    urlParameters:
      id:
        name: id
        description: 'User identifier.'
        required: true
        example: 13
        type: integer
        custom: []
    cleanUrlParameters:
      id: 13
    queryParameters: []
    cleanQueryParameters: []
    bodyParameters: []
    cleanBodyParameters: []
    fileParameters: []
    responses:
      -
        status: 200
        content: '{"id": 1, "firstname": "John", "lastname": "Doe", "phone": 123456789, "email": "john@doe.com", "activated": 1, "owner": 0, "superuser": 0, "can_delete": 1, "user_permission_id": 1, "user_permission_name": "Permission name"}'
        headers: []
        description: ''
        custom: []
      -
        status: 404
        content: '{"error":true,"message":"User does not exist"}'
        headers: []
        description: ''
        custom: []
    responseFields: []
    auth: []
    controller: null
    method: null
    route: null
    custom: []
  -
    httpMethods:
      - PUT
    uri: 'api/user/{id}'
    metadata:
      groupName: 'User management'
      groupDescription: ''
      subgroup: ''
      subgroupDescription: ''
      title: 'Update user account data'
      description: 'Update user account data.'
      authenticated: false
      custom: []
    headers:
      Content-Type: application/json
      Accept: application/json
      'Authorization:': 'Bearer {TOKEN}'
    urlParameters:
      id:
        name: id
        description: 'User identifier.'
        required: true
        example: 9
        type: integer
        custom: []
    cleanUrlParameters:
      id: 9
    queryParameters: []
    cleanQueryParameters: []
    bodyParameters:
      firstname:
        name: firstname
        description: 'User first name.'
        required: false
        example: iure
        type: string
        custom: []
      lastname:
        name: lastname
        description: 'User last name.'
        required: false
        example: saepe
        type: string
        custom: []
      email:
        name: email
        description: 'User e-mail address.'
        required: false
        example: ruecker.asha@example.com
        type: string
        custom: []
      password:
        name: password
        description: 'User password (min 8 characters, lowercase and uppercase letters, number, special characters).'
        required: false
        example: Be!+tK
        type: string
        custom: []
      phone:
        name: phone
        description: 'User phone number.'
        required: false
        example: explicabo
        type: string
        custom: []
      user_permission_id:
        name: user_permission_id
        description: 'Permission group identifier.'
        required: false
        example: 12
        type: integer
        custom: []
      superuser:
        name: superuser
        description: 'If set true user have full access regardless of permissions.'
        required: false
        example: false
        type: boolean
        custom: []
    cleanBodyParameters:
      firstname: iure
      lastname: saepe
      email: ruecker.asha@example.com
      password: Be!+tK
      phone: explicabo
      user_permission_id: 12
      superuser: false
    fileParameters: []
    responses: []
    responseFields:
      status:
        name: status
        description: 'Update status'
        required: false
        example: null
        type: boolean
        custom: []
    auth: []
    controller: null
    method: null
    route: null
    custom: []
  -
    httpMethods:
      - DELETE
    uri: 'api/user/{id}'
    metadata:
      groupName: 'User management'
      groupDescription: ''
      subgroup: ''
      subgroupDescription: ''
      title: 'Delete user account'
      description: 'Delete user account.'
      authenticated: false
      custom: []
    headers:
      Content-Type: application/json
      Accept: application/json
      'Authorization:': 'Bearer {TOKEN}'
    urlParameters:
      id:
        name: id
        description: 'User identifier.'
        required: true
        example: 7
        type: integer
        custom: []
    cleanUrlParameters:
      id: 7
    queryParameters: []
    cleanQueryParameters: []
    bodyParameters: []
    cleanBodyParameters: []
    fileParameters: []
    responses:
      -
        status: 404
        content: '{"error":true,"message":"User does not exist"}'
        headers: []
        description: ''
        custom: []
    responseFields:
      status:
        name: status
        description: 'Delete status'
        required: false
        example: null
        type: boolean
        custom: []
    auth: []
    controller: null
    method: null
    route: null
    custom: []
  -
    httpMethods:
      - GET
    uri: api/user/permission
    metadata:
      groupName: 'User management'
      groupDescription: ''
      subgroup: ''
      subgroupDescription: ''
      title: 'Get logged user permissions'
      description: 'Get logged user permissions'
      authenticated: false
      custom: []
    headers:
      Content-Type: application/json
      Accept: application/json
      'Authorization:': 'Bearer {TOKEN}'
    urlParameters: []
    cleanUrlParameters: []
    queryParameters: []
    cleanQueryParameters: []
    bodyParameters: []
    cleanBodyParameters: []
    fileParameters: []
    responses:
      -
        status: 200
        content: '{"permission":{"project":["list","create","update","delete"],"task":["list","create","update","delete"],"user":["list","create","update","delete"],"permission":["list","create","update","delete"]}}'
        headers: []
        description: ''
        custom: []
    responseFields: []
    auth: []
    controller: null
    method: null
    route: null
    custom: []
  -
    httpMethods:
      - GET
    uri: api/profile
    metadata:
      groupName: 'User management'
      groupDescription: ''
      subgroup: ''
      subgroupDescription: ''
      title: 'User profile'
      description: 'User profile.'
      authenticated: false
      custom: []
    headers:
      Content-Type: application/json
      Accept: application/json
      'Authorization:': 'Bearer {TOKEN}'
    urlParameters: []
    cleanUrlParameters: []
    queryParameters: []
    cleanQueryParameters: []
    bodyParameters: []
    cleanBodyParameters: []
    fileParameters: []
    responses:
      -
        status: 200
        content: '{"id": 1, "firstname": "John", "lastname": "Doe", "phone": 123456789, "email": "john@doe.com", "activated": 1, "owner": 0, "superuser": 0, "user_permission_id": 1, "user_permission_name": "Permission name"}'
        headers: []
        description: ''
        custom: []
    responseFields: []
    auth: []
    controller: null
    method: null
    route: null
    custom: []
  -
    httpMethods:
      - PUT
    uri: api/profile
    metadata:
      groupName: 'User management'
      groupDescription: ''
      subgroup: ''
      subgroupDescription: ''
      title: 'Update user profile'
      description: 'User profile.'
      authenticated: false
      custom: []
    headers:
      Content-Type: application/json
      Accept: application/json
      'Authorization:': 'Bearer {TOKEN}'
    urlParameters: []
    cleanUrlParameters: []
    queryParameters: []
    cleanQueryParameters: []
    bodyParameters:
      firstname:
        name: firstname
        description: 'User first name.'
        required: false
        example: odio
        type: string
        custom: []
      lastname:
        name: lastname
        description: 'User last name.'
        required: false
        example: voluptas
        type: string
        custom: []
      email:
        name: email
        description: 'User e-mail address.'
        required: false
        example: aspinka@example.org
        type: string
        custom: []
      password:
        name: password
        description: 'User password (min 8 characters, lowercase and uppercase letters, number, special characters).'
        required: false
        example: '?T6j@Bwrk*&!&'
        type: string
        custom: []
      phone:
        name: phone
        description: 'User phone number.'
        required: false
        example: quis
        type: string
        custom: []
    cleanBodyParameters:
      firstname: odio
      lastname: voluptas
      email: aspinka@example.org
      password: '?T6j@Bwrk*&!&'
      phone: quis
    fileParameters: []
    responses: []
    responseFields:
      status:
        name: status
        description: 'Update status'
        required: false
        example: null
        type: boolean
        custom: []
    auth: []
    controller: null
    method: null
    route: null
    custom: []
  -
    httpMethods:
      - POST
    uri: api/profile/avatar
    metadata:
      groupName: 'User management'
      groupDescription: ''
      subgroup: ''
      subgroupDescription: ''
      title: 'Update user profile avatar'
      description: 'User profile avatar.'
      authenticated: false
      custom: []
    headers:
      Content-Type: multipart/form-data
      Accept: application/json
      'Authorization:': 'Bearer {TOKEN}'
    urlParameters: []
    cleanUrlParameters: []
    queryParameters: []
    cleanQueryParameters: []
    bodyParameters:
      file:
        name: file
        description: 'avatar file.'
        required: false
        example: null
        type: file
        custom: []
    cleanBodyParameters: []
    fileParameters:
      file: null
    responses: []
    responseFields:
      status:
        name: status
        description: 'Update status'
        required: false
        example: null
        type: boolean
        custom: []
    auth: []
    controller: null
    method: null
    route: null
    custom: []
  -
    httpMethods:
      - GET
    uri: api/settings
    metadata:
      groupName: 'User management'
      groupDescription: ''
      subgroup: ''
      subgroupDescription: ''
      title: 'User settings'
      description: 'User settings.'
      authenticated: false
      custom: []
    headers:
      Content-Type: application/json
      Accept: application/json
      'Authorization:': 'Bearer {TOKEN}'
    urlParameters: []
    cleanUrlParameters: []
    queryParameters: []
    cleanQueryParameters: []
    bodyParameters: []
    cleanBodyParameters: []
    fileParameters: []
    responses:
      -
        status: 200
        content: '{"locale": "pl"}'
        headers: []
        description: ''
        custom: []
    responseFields: []
    auth: []
    controller: null
    method: null
    route: null
    custom: []
  -
    httpMethods:
      - PUT
    uri: api/settings
    metadata:
      groupName: 'User management'
      groupDescription: ''
      subgroup: ''
      subgroupDescription: ''
      title: 'Update user settings'
      description: 'User settings.'
      authenticated: false
      custom: []
    headers:
      Content-Type: application/json
      Accept: application/json
      'Authorization:': 'Bearer {TOKEN}'
    urlParameters: []
    cleanUrlParameters: []
    queryParameters: []
    cleanQueryParameters: []
    bodyParameters:
      locale:
        name: locale
        description: 'Locale ex. pl.'
        required: false
        example: ga_IE
        type: string
        custom: []
      notifications:
        name: notifications
        description: 'User e-mail notifications (separated by a comma)'
        required: false
        example: non
        type: string
        custom: []
    cleanBodyParameters:
      locale: ga_IE
      notifications: non
    fileParameters: []
    responses: []
    responseFields:
      status:
        name: status
        description: 'Update status'
        required: false
        example: null
        type: boolean
        custom: []
    auth: []
    controller: null
    method: null
    route: null
    custom: []
  -
    httpMethods:
      - GET
    uri: api/get-firm-id
    metadata:
      groupName: 'User management'
      groupDescription: ''
      subgroup: ''
      subgroupDescription: ''
      title: 'Get login user firm identifier'
      description: 'Get login user firm identifier.'
      authenticated: false
      custom: []
    headers:
      Content-Type: application/json
      Accept: application/json
      'Authorization:': 'Bearer {TOKEN}'
    urlParameters: []
    cleanUrlParameters: []
    queryParameters: []
    cleanQueryParameters: []
    bodyParameters: []
    cleanBodyParameters: []
    fileParameters: []
    responses: []
    responseFields:
      status:
        name: status
        description: 'Firm identifier'
        required: false
        example: null
        type: integer
        custom: []
    auth: []
    controller: null
    method: null
    route: null
    custom: []
  -
    httpMethods:
      - GET
    uri: api/get-id
    metadata:
      groupName: 'User management'
      groupDescription: ''
      subgroup: ''
      subgroupDescription: ''
      title: 'Get login user identifier'
      description: 'Get login user identifier.'
      authenticated: false
      custom: []
    headers:
      Content-Type: application/json
      Accept: application/json
      'Authorization:': 'Bearer {TOKEN}'
    urlParameters: []
    cleanUrlParameters: []
    queryParameters: []
    cleanQueryParameters: []
    bodyParameters: []
    cleanBodyParameters: []
    fileParameters: []
    responses: []
    responseFields:
      status:
        name: status
        description: 'User identifier'
        required: false
        example: null
        type: integer
        custom: []
    auth: []
    controller: null
    method: null
    route: null
    custom: []
  -
    httpMethods:
      - GET
    uri: api/user/getActiveTimer
    metadata:
      groupName: 'User management'
      groupDescription: ''
      subgroup: ''
      subgroupDescription: ''
      title: 'Get active timer'
      description: 'Get user active timer list.'
      authenticated: false
      custom: []
    headers:
      Content-Type: application/json
      Accept: application/json
      'Authorization:': 'Bearer {TOKEN}'
    urlParameters: []
    cleanUrlParameters: []
    queryParameters: []
    cleanQueryParameters: []
    bodyParameters: []
    cleanBodyParameters: []
    fileParameters: []
    responses:
      -
        status: 200
        content: '{"total": 100, "data": [{"id": 1, "task_id": 12, "status": "active", "total": 1, "task": "Task name"}]}'
        headers: []
        description: ''
        custom: []
    responseFields:
      status:
        name: status
        description: 'Update status'
        required: false
        example: null
        type: boolean
        custom: []
    auth: []
    controller: null
    method: null
    route: null
    custom: []
  -
    httpMethods:
      - GET
    uri: api/firm-data
    metadata:
      groupName: 'User management'
      groupDescription: ''
      subgroup: ''
      subgroupDescription: ''
      title: 'Get firm data'
      description: 'Get firm data'
      authenticated: false
      custom: []
    headers:
      Content-Type: application/json
      Accept: application/json
      'Authorization:': 'Bearer {TOKEN}'
    urlParameters: []
    cleanUrlParameters: []
    queryParameters: []
    cleanQueryParameters: []
    bodyParameters: []
    cleanBodyParameters: []
    fileParameters: []
    responses:
      -
        status: 200
        content: '{"identifier": "Firm ID", "firstname": "John", "lastname": "Doe", "email": "example@com.pl", "nip": "0123456789", "name": "Firm name", "street": "Street name", "house_no": "12", "apartment_no": "1A", "city": "London", "zip": "91-000", "country_id": 123, "phone": "888777666"}'
        headers: []
        description: ''
        custom: []
    responseFields: []
    auth: []
    controller: null
    method: null
    route: null
    custom: []
  -
    httpMethods:
      - POST
    uri: api/firm-data
    metadata:
      groupName: 'User management'
      groupDescription: ''
      subgroup: ''
      subgroupDescription: ''
      title: 'Update firm data'
      description: 'Update firm data'
      authenticated: false
      custom: []
    headers:
      Content-Type: application/json
      Accept: application/json
      'Authorization:': 'Bearer {TOKEN}'
    urlParameters: []
    cleanUrlParameters: []
    queryParameters: []
    cleanQueryParameters: []
    bodyParameters:
      firstname:
        name: firstname
        description: 'Owner first name.'
        required: false
        example: delectus
        type: string
        custom: []
      lastname:
        name: lastname
        description: 'Owner last name.'
        required: false
        example: voluptatem
        type: string
        custom: []
      email:
        name: email
        description: 'Firm e-mail address.'
        required: false
        example: odamore@example.org
        type: string
        custom: []
      nip:
        name: nip
        description: NIP.
        required: false
        example: quis
        type: string
        custom: []
      name:
        name: name
        description: 'Firm name.'
        required: false
        example: id
        type: string
        custom: []
      street:
        name: street
        description: 'Firm street.'
        required: false
        example: molestiae
        type: string
        custom: []
      house_no:
        name: house_no
        description: 'Firm house no.'
        required: false
        example: quasi
        type: string
        custom: []
      apartment_no:
        name: apartment_no
        description: 'Firm apartment no.'
        required: false
        example: hic
        type: string
        custom: []
      city:
        name: city
        description: 'Firm city.'
        required: false
        example: qui
        type: string
        custom: []
      zip:
        name: zip
        description: 'Firm zip.'
        required: false
        example: debitis
        type: string
        custom: []
      country_id:
        name: country_id
        description: 'Firm country identifier.'
        required: false
        example: 14
        type: integer
        custom: []
      phone:
        name: phone
        description: 'Firm phone.'
        required: false
        example: aut
        type: string
        custom: []
    cleanBodyParameters:
      firstname: delectus
      lastname: voluptatem
      email: odamore@example.org
      nip: quis
      name: id
      street: molestiae
      house_no: quasi
      apartment_no: hic
      city: qui
      zip: debitis
      country_id: 14
      phone: aut
    fileParameters: []
    responses: []
    responseFields: []
    auth: []
    controller: null
    method: null
    route: null
    custom: []
  -
    httpMethods:
      - GET
    uri: 'api/invite/{token}'
    metadata:
      groupName: 'User management'
      groupDescription: ''
      subgroup: ''
      subgroupDescription: ''
      title: 'Validate invite token'
      description: 'Check validate invite token.'
      authenticated: false
      custom: []
    headers:
      Content-Type: application/json
      Accept: application/json
    urlParameters:
      token:
        name: token
        description: 'Invite token from invitation message.'
        required: true
        example: dolores
        type: string
        custom: []
    cleanUrlParameters:
      token: dolores
    queryParameters: []
    cleanQueryParameters: []
    bodyParameters: []
    cleanBodyParameters: []
    fileParameters: []
    responses:
      -
        status: 200
        content: "{'email': 'john@doe.com'}"
        headers: []
        description: ''
        custom: []
      -
        status: 404
        content: '{"error":true,"message":"The given token is invalid"}'
        headers: []
        description: ''
        custom: []
    responseFields: []
    auth: []
    controller: null
    method: null
    route: null
    custom: []
  -
    httpMethods:
      - PUT
    uri: 'api/invite/{token}'
    metadata:
      groupName: 'User management'
      groupDescription: ''
      subgroup: ''
      subgroupDescription: ''
      title: 'Confirm invitation'
      description: 'Confirm invitation and create new user account.'
      authenticated: false
      custom: []
    headers:
      Content-Type: application/json
      Accept: application/json
    urlParameters:
      token:
        name: token
        description: 'Invite token.'
        required: true
        example: ipsum
        type: string
        custom: []
    cleanUrlParameters:
      token: ipsum
    queryParameters: []
    cleanQueryParameters: []
    bodyParameters:
      firstname:
        name: firstname
        description: 'User first name.'
        required: true
        example: distinctio
        type: string
        custom: []
      lastname:
        name: lastname
        description: 'User last name.'
        required: true
        example: soluta
        type: string
        custom: []
      password:
        name: password
        description: 'User password (min 8 characters, lowercase and uppercase letters, number, special characters).'
        required: true
        example: '{mY(^F*9'
        type: string
        custom: []
      phone:
        name: phone
        description: 'User phone number.'
        required: false
        example: doloremque
        type: string
        custom: []
    cleanBodyParameters:
      firstname: distinctio
      lastname: soluta
      password: '{mY(^F*9'
      phone: doloremque
    fileParameters: []
    responses:
      -
        status: 404
        content: '{"error":true,"message":"The given token is invalid"}'
        headers: []
        description: ''
        custom: []
    responseFields:
      id:
        name: id
        description: 'The id of the newly created user'
        required: false
        example: null
        type: integer
        custom: []
    auth: []
    controller: null
    method: null
    route: null
    custom: []
