## Autogenerated by Scribe. DO NOT MODIFY.

name: Tasks
description: ''
endpoints:
  -
    httpMethods:
      - GET
    uri: 'api/tasks/{id}'
    metadata:
      groupName: Tasks
      groupDescription: ''
      subgroup: ''
      subgroupDescription: ''
      title: 'Get tasks list'
      description: 'Return tasks list assigned to project.'
      authenticated: false
      custom: []
    headers:
      Content-Type: application/json
      Accept: application/json
      'Authorization:': 'Bearer {TOKEN}'
    urlParameters:
      id:
        name: id
        description: 'Project identifier.'
        required: true
        example: 8
        type: integer
        custom: []
    cleanUrlParameters:
      id: 8
    queryParameters:
      size:
        name: size
        description: 'Number of rows. Default: 50'
        required: false
        example: 17
        type: integer
        custom: []
      page:
        name: page
        description: 'Number of page (pagination). Default: 1'
        required: false
        example: 9
        type: integer
        custom: []
    cleanQueryParameters:
      size: 17
      page: 9
    bodyParameters: []
    cleanBodyParameters: []
    fileParameters: []
    responses:
      -
        status: 200
        content: '{"total_rows": 100, "total_pages": "4", "current_page": 1, "has_more": true, "data": [{"id": 1, "name": "Example task", "description": "Example description", "created_at" => "2020-01-01 10:00:00", "assigned_to" => [1,2]}]}'
        headers: []
        description: ''
        custom: []
    responseFields: []
    auth: []
    controller: null
    method: null
    route: null
    custom: []
  -
    httpMethods:
      - PUT
    uri: api/task
    metadata:
      groupName: Tasks
      groupDescription: ''
      subgroup: ''
      subgroupDescription: ''
      title: 'Create new task'
      description: 'Create new task.'
      authenticated: false
      custom: []
    headers:
      Content-Type: application/json
      Accept: application/json
      'Authorization:': 'Bearer {TOKEN}'
    urlParameters: []
    cleanUrlParameters: []
    queryParameters: []
    cleanQueryParameters: []
    bodyParameters:
      project_id:
        name: project_id
        description: 'Project identifier.'
        required: true
        example: 8
        type: integer
        custom: []
      name:
        name: name
        description: 'Task name.'
        required: true
        example: vero
        type: string
        custom: []
      description:
        name: description
        description: 'Task description.'
        required: false
        example: 'Ad dolore sapiente cumque sed et corrupti.'
        type: string
        custom: []
      users:
        name: users
        description: 'Array of users identifier assigned to task.'
        required: false
        example: 5
        type: integer
        custom: []
    cleanBodyParameters:
      project_id: 8
      name: vero
      description: 'Ad dolore sapiente cumque sed et corrupti.'
      users: 5
    fileParameters: []
    responses: []
    responseFields:
      id:
        name: id
        description: 'The id of the newly created task'
        required: false
        example: null
        type: integer
        custom: []
    auth: []
    controller: null
    method: null
    route: null
    custom: []
  -
    httpMethods:
      - GET
    uri: 'api/task/{id}'
    metadata:
      groupName: Tasks
      groupDescription: ''
      subgroup: ''
      subgroupDescription: ''
      title: 'Get task details'
      description: 'Return task details.'
      authenticated: false
      custom: []
    headers:
      Content-Type: application/json
      Accept: application/json
      'Authorization:': 'Bearer {TOKEN}'
    urlParameters:
      id:
        name: id
        description: 'Task identifier.'
        required: true
        example: 12
        type: integer
        custom: []
    cleanUrlParameters:
      id: 12
    queryParameters: []
    cleanQueryParameters: []
    bodyParameters: []
    cleanBodyParameters: []
    fileParameters: []
    responses:
      -
        status: 200
        content: '{"id": 1, "name": "Example task", "description": "Example description", "created_at" => "2020-01-01 10:00:00", "assigned_to" => [1,2]}'
        headers: []
        description: ''
        custom: []
      -
        status: 404
        content: '{"error":true,"message":"Task does not exist"}'
        headers: []
        description: ''
        custom: []
    responseFields: []
    auth: []
    controller: null
    method: null
    route: null
    custom: []
  -
    httpMethods:
      - PUT
    uri: 'api/task/{id}'
    metadata:
      groupName: Tasks
      groupDescription: ''
      subgroup: ''
      subgroupDescription: ''
      title: 'Update task'
      description: 'Update task.'
      authenticated: false
      custom: []
    headers:
      Content-Type: application/json
      Accept: application/json
      'Authorization:': 'Bearer {TOKEN}'
    urlParameters:
      id:
        name: id
        description: 'Task identifier.'
        required: true
        example: 12
        type: integer
        custom: []
    cleanUrlParameters:
      id: 12
    queryParameters: []
    cleanQueryParameters: []
    bodyParameters:
      name:
        name: name
        description: 'Task name.'
        required: false
        example: aut
        type: string
        custom: []
      description:
        name: description
        description: 'Task description.'
        required: false
        example: 'Deleniti ipsum ipsum eveniet laborum ad.'
        type: string
        custom: []
      users:
        name: users
        description: 'Array of users identifier assigned to task.'
        required: false
        example: 7
        type: integer
        custom: []
    cleanBodyParameters:
      name: aut
      description: 'Deleniti ipsum ipsum eveniet laborum ad.'
      users: 7
    fileParameters: []
    responses: []
    responseFields:
      status:
        name: status
        description: 'Update status'
        required: false
        example: null
        type: boolean
        custom: []
    auth: []
    controller: null
    method: null
    route: null
    custom: []
  -
    httpMethods:
      - DELETE
    uri: 'api/task/{id}'
    metadata:
      groupName: Tasks
      groupDescription: ''
      subgroup: ''
      subgroupDescription: ''
      title: 'Delete task'
      description: 'Delete task.'
      authenticated: false
      custom: []
    headers:
      Content-Type: application/json
      Accept: application/json
      'Authorization:': 'Bearer {TOKEN}'
    urlParameters:
      id:
        name: id
        description: 'Task identifier.'
        required: true
        example: 12
        type: integer
        custom: []
    cleanUrlParameters:
      id: 12
    queryParameters: []
    cleanQueryParameters: []
    bodyParameters: []
    cleanBodyParameters: []
    fileParameters: []
    responses:
      -
        status: 404
        content: '{"error":true,"message":"Task does not exist"}'
        headers: []
        description: ''
        custom: []
    responseFields:
      status:
        name: status
        description: 'Delete status'
        required: false
        example: null
        type: boolean
        custom: []
    auth: []
    controller: null
    method: null
    route: null
    custom: []
  -
    httpMethods:
      - POST
    uri: 'api/task/{id}/assign'
    metadata:
      groupName: Tasks
      groupDescription: ''
      subgroup: ''
      subgroupDescription: ''
      title: 'Assign user to task'
      description: 'Assign user to task.'
      authenticated: false
      custom: []
    headers:
      Content-Type: application/json
      Accept: application/json
      'Authorization:': 'Bearer {TOKEN}'
    urlParameters:
      id:
        name: id
        description: 'Task identifier.'
        required: true
        example: 7
        type: integer
        custom: []
    cleanUrlParameters:
      id: 7
    queryParameters: []
    cleanQueryParameters: []
    bodyParameters:
      user_id:
        name: user_id
        description: 'User identifier.'
        required: true
        example: 12
        type: integer
        custom: []
    cleanBodyParameters:
      user_id: 12
    fileParameters: []
    responses:
      -
        status: 404
        content: '{"error":true,"message":"Task does not exist"}'
        headers: []
        description: ''
        custom: []
    responseFields:
      status:
        name: status
        description: 'Assign status'
        required: false
        example: null
        type: boolean
        custom: []
    auth: []
    controller: null
    method: null
    route: null
    custom: []
  -
    httpMethods:
      - POST
    uri: 'api/task/{id}/deassign'
    metadata:
      groupName: Tasks
      groupDescription: ''
      subgroup: ''
      subgroupDescription: ''
      title: 'Deassign user from task'
      description: 'Deassign user from task.'
      authenticated: false
      custom: []
    headers:
      Content-Type: application/json
      Accept: application/json
      'Authorization:': 'Bearer {TOKEN}'
    urlParameters:
      id:
        name: id
        description: 'Task identifier.'
        required: true
        example: 9
        type: integer
        custom: []
    cleanUrlParameters:
      id: 9
    queryParameters: []
    cleanQueryParameters: []
    bodyParameters:
      user_id:
        name: user_id
        description: 'User identifier.'
        required: true
        example: 12
        type: integer
        custom: []
    cleanBodyParameters:
      user_id: 12
    fileParameters: []
    responses:
      -
        status: 404
        content: '{"error":true,"message":"Task does not exist"}'
        headers: []
        description: ''
        custom: []
    responseFields:
      status:
        name: status
        description: 'Deassign status'
        required: false
        example: null
        type: boolean
        custom: []
    auth: []
    controller: null
    method: null
    route: null
    custom: []
